%YAML 1.1
%TAG !u! tag:unity3d.com,2011:
--- !u!114 &11400000
MonoBehaviour:
  m_ObjectHideFlags: 0
  m_CorrespondingSourceObject: {fileID: 0}
  m_PrefabInstance: {fileID: 0}
  m_PrefabAsset: {fileID: 0}
  m_GameObject: {fileID: 0}
  m_Enabled: 1
  m_EditorHideFlags: 0
  m_Script: {fileID: 11500000, guid: d3b4e63605931a446996e77b6e870fcc, type: 3}
  m_Name: EnemyWaveSO2
  m_EditorClassIdentifier: 
  enemyPrefabList:
  - {fileID: 5410587417081284375, guid: 8dea9be001b8c9147895e180cda294b8, type: 3}
  pathPrefab: {fileID: 1640980660611691631, guid: b366f119de9931e4e9291cb518a2a481, type: 3}
  enemyCount: 10
  enemySpawnGap: 1
